[
  {
    "name": "${environment}-${name}-${cluster}",
    "image": "${image_name}:${image_tag}",
    "portMappings": [
      {
        "protocol": "tcp",
        "containerPort": ${container_port},
        "hostPort": ${container_port}
      }
    ],
    "linuxParameters": {
      "initProcessEnabled": true
    },
    "cpu": ${cpu},
    "memory": ${memory},
    "memoryReservation": ${memory},
    "secrets": [
      {
        "name": "AWS_ACCESS_KEY_ID",
        "valueFrom": "arn:aws:ssm:${region}:${account_id}:parameter/devops/aws/AWS_ACCESS_KEY_ID"
      },
      {
        "name": "AWS_SECRET_ACCESS_KEY",
        "valueFrom": "arn:aws:ssm:${region}:${account_id}:parameter/devops/aws/AWS_SECRET_ACCESS_KEY"
      }
    ],
    "environment": [
      {
        "name": "REGION",
        "value": "${region}"
      },
      {
        "name": "ENVIRONMENT",
        "value": "${environment}"
      },
      {
        "name": "SERVICE_NAME",
        "value": "${name}"
      },
      {
        "name": "CANARY",
        "value": "${canary}"
      }
    ],
    "logConfiguration": {
      "logDriver": "awslogs",
      "options": {
        "awslogs-group": "/ecs/${environment}-${name}-${cluster}",
        "awslogs-region": "${region}",
        "awslogs-stream-prefix": "ecs"
      }
    }
  },
  {
    "name": "${environment}-${name}-${cluster}-datadog-agent",
    "image": "public.ecr.aws/datadog/agent:latest",
    "portMappings": [
      {
        "protocol": "tcp",
        "containerPort": 8126,
        "hostPort": 8126
      }
    ],
    "essential": true,
    "secrets": [
      {
        "name": "DD_API_KEY",
        "valueFrom": "arn:aws:ssm:${region}:${account_id}:parameter/devops/datadog/DD_API_KEY"
      }
    ],
    "environment": [
      {
        "name": "DD_APM_ENABLED",
        "value": "true"
      },
      {
        "name": "ECS_FARGATE",
        "value": "true"
      },
      {
        "name": "DD_LOG_LEVEL",
        "value": "trace"
      }
    ],
    "logConfiguration": {
      "logDriver": "awslogs",
      "options": {
        "awslogs-group": "/ecs/${environment}-${name}-${cluster}-datadog",
        "awslogs-region": "${region}",
        "awslogs-stream-prefix": "ecs"
      }
    }
  }
]
